{
	"info": {
		"_postman_id": "ad146e79-08a0-47fd-bd72-810f175c4291",
		"name": "fsecure",
		"schema": "https://schema.getpostman.com/json/collection/v2.1.0/collection.json"
	},
	"item": [
		{
			"name": "Resize Request",
			"request": {
				"method": "POST",
				"header": [],
				"body": {
					"mode": "raw",
					"raw": "{\n    \"request\" : [\"äáöü\",\"test\",\"test\"]\n}",
					"options": {
						"raw": {
							"language": "json"
						}
					}
				},
				"url": {
					"raw": "http://localhost:3000/dev/resizerequests",
					"protocol": "http",
					"host": [
						"localhost"
					],
					"port": "3000",
					"path": [
						"dev",
						"resizerequests"
					]
				}
			},
			"response": []
		}
	]
}